{
    "output": {
        "bass_enhancer": {
            "amount": 8.999999999999984,
            "blend": 0.0,
            "floor": 20.0,
            "floor-active": false,
            "harmonics": 8.5,
            "input-gain": 0.0,
            "output-gain": 0.0,
            "scope": 100.0
        },
        "blocklist": [],
        "equalizer": {
            "input-gain": -5.9,
            "left": {
                "band0": {
                    "frequency": 20.0,
                    "gain": 5.699999809265137,
                    "mode": "APO (DR)",
                    "mute": false,
                    "q": 0.8100000023841858,
                    "slope": "x1",
                    "solo": false,
                    "type": "Bell"
                },
                "band1": {
                    "frequency": 2348.0,
                    "gain": 2.5,
                    "mode": "APO (DR)",
                    "mute": false,
                    "q": 3.299999952316284,
                    "slope": "x1",
                    "solo": false,
                    "type": "Bell"
                },
                "band2": {
                    "frequency": 5815.0,
                    "gain": 0.6000000238418579,
                    "mode": "APO (DR)",
                    "mute": false,
                    "q": 2.9200000762939453,
                    "slope": "x1",
                    "solo": false,
                    "type": "Bell"
                },
                "band3": {
                    "frequency": 7679.0,
                    "gain": 1.399999976158142,
                    "mode": "APO (DR)",
                    "mute": false,
                    "q": 3.0399999618530273,
                    "slope": "x1",
                    "solo": false,
                    "type": "Bell"
                },
                "band4": {
                    "frequency": 9514.0,
                    "gain": 1.7000000476837158,
                    "mode": "APO (DR)",
                    "mute": false,
                    "q": 3.5199999809265137,
                    "slope": "x1",
                    "solo": false,
                    "type": "Bell"
                },
                "band5": {
                    "frequency": 234.0,
                    "gain": -1.7000000476837158,
                    "mode": "APO (DR)",
                    "mute": false,
                    "q": 1.2699999809265137,
                    "slope": "x1",
                    "solo": false,
                    "type": "Bell"
                },
                "band6": {
                    "frequency": 1148.0,
                    "gain": -2.4000000953674316,
                    "mode": "APO (DR)",
                    "mute": false,
                    "q": 1.149999976158142,
                    "slope": "x1",
                    "solo": false,
                    "type": "Bell"
                },
                "band7": {
                    "frequency": 1697.0,
                    "gain": 1.399999976158142,
                    "mode": "APO (DR)",
                    "mute": false,
                    "q": 1.2200000286102295,
                    "slope": "x1",
                    "solo": false,
                    "type": "Bell"
                },
                "band8": {
                    "frequency": 11516.0,
                    "gain": 1.899999976158142,
                    "mode": "APO (DR)",
                    "mute": false,
                    "q": 1.2000000476837158,
                    "slope": "x1",
                    "solo": false,
                    "type": "Bell"
                },
                "band9": {
                    "frequency": 19828.0,
                    "gain": -8.600000381469727,
                    "mode": "APO (DR)",
                    "mute": false,
                    "q": 0.36000001430511475,
                    "slope": "x1",
                    "solo": false,
                    "type": "Bell"
                }
            },
            "mode": "IIR",
            "num-bands": 10,
            "output-gain": 0.0,
            "right": {
                "band0": {
                    "frequency": 20.0,
                    "gain": 5.699999809265137,
                    "mode": "APO (DR)",
                    "mute": false,
                    "q": 0.8100000023841858,
                    "slope": "x1",
                    "solo": false,
                    "type": "Bell"
                },
                "band1": {
                    "frequency": 2348.0,
                    "gain": 2.5,
                    "mode": "APO (DR)",
                    "mute": false,
                    "q": 3.299999952316284,
                    "slope": "x1",
                    "solo": false,
                    "type": "Bell"
                },
                "band2": {
                    "frequency": 5815.0,
                    "gain": 0.6000000238418579,
                    "mode": "APO (DR)",
                    "mute": false,
                    "q": 2.9200000762939453,
                    "slope": "x1",
                    "solo": false,
                    "type": "Bell"
                },
                "band3": {
                    "frequency": 7679.0,
                    "gain": 1.399999976158142,
                    "mode": "APO (DR)",
                    "mute": false,
                    "q": 3.0399999618530273,
                    "slope": "x1",
                    "solo": false,
                    "type": "Bell"
                },
                "band4": {
                    "frequency": 9514.0,
                    "gain": 1.7000000476837158,
                    "mode": "APO (DR)",
                    "mute": false,
                    "q": 3.5199999809265137,
                    "slope": "x1",
                    "solo": false,
                    "type": "Bell"
                },
                "band5": {
                    "frequency": 234.0,
                    "gain": -1.7000000476837158,
                    "mode": "APO (DR)",
                    "mute": false,
                    "q": 1.2699999809265137,
                    "slope": "x1",
                    "solo": false,
                    "type": "Bell"
                },
                "band6": {
                    "frequency": 1148.0,
                    "gain": -2.4000000953674316,
                    "mode": "APO (DR)",
                    "mute": false,
                    "q": 1.149999976158142,
                    "slope": "x1",
                    "solo": false,
                    "type": "Bell"
                },
                "band7": {
                    "frequency": 1697.0,
                    "gain": 1.399999976158142,
                    "mode": "APO (DR)",
                    "mute": false,
                    "q": 1.2200000286102295,
                    "slope": "x1",
                    "solo": false,
                    "type": "Bell"
                },
                "band8": {
                    "frequency": 11516.0,
                    "gain": 1.899999976158142,
                    "mode": "APO (DR)",
                    "mute": false,
                    "q": 1.2000000476837158,
                    "slope": "x1",
                    "solo": false,
                    "type": "Bell"
                },
                "band9": {
                    "frequency": 19828.0,
                    "gain": -8.600000381469727,
                    "mode": "APO (DR)",
                    "mute": false,
                    "q": 0.36000001430511475,
                    "slope": "x1",
                    "solo": false,
                    "type": "Bell"
                }
            },
            "split-channels": false
        },
        "plugins_order": [
            "equalizer",
            "bass_enhancer"
        ]
    }
}
